<?xml version="1.0" encoding="utf-8"?>
<!-- Generator: Adobe Illustrator 15.0.0, SVG Export Plug-In . SVG Version: 6.00 Build 0)  -->
<!DOCTYPE svg PUBLIC "-//W3C//DTD SVG 1.1//EN" "http://www.w3.org/Graphics/SVG/1.1/DTD/svg11.dtd">
<svg version="1.1" id="Layer_1" xmlns="http://www.w3.org/2000/svg" xmlns:xlink="http://www.w3.org/1999/xlink" x="0px" y="0px"
	 width="360px" height="360px" viewBox="0 0 360 360" enable-background="new 0 0 360 360" xml:space="preserve">
<g>
	<path fill="#E4A52B" d="M61.558,159.152c-0.241,1.349-0.885,2.607-1.933,3.775c-1.049,1.168-2.247,1.917-3.595,2.247
		c-3.806,0.959-6.337,1.438-7.595,1.438c-2.188,0-4.473-0.577-6.854-1.731c-2.383-1.153-4.308-2.584-5.775-4.292l2.113-1.933
		c2.994,2.996,6.576,4.494,10.74,4.494c1.828,0,3.551-0.33,5.168-0.988c2.007-0.809,3.281-1.933,3.821-3.371
		c0.179-0.36,0.269-0.674,0.269-0.944c0-0.119-0.075-0.463-0.224-1.033c-0.36-1.408-1.034-2.262-2.023-2.562
		c-1.109-0.33-2.517-0.554-4.224-0.674c-0.09,0-1.513-0.029-4.27-0.09c-0.689,0.03-1.678,0-2.967-0.089
		c-0.119-0.03-0.554-0.18-1.303-0.45c-2.308-0.838-3.986-1.992-5.034-3.46c-0.299-1.888-0.448-3.041-0.448-3.46
		c0-1.288,0.314-2.307,0.942-3.056c0.24-0.27,0.674-0.674,1.304-1.213c2.757-2.337,5.452-3.445,8.089-3.326
		c4.553,0.21,8.059,1.319,10.516,3.326c0.51,0.03,0.974,0.24,1.393,0.629c0,0.031,0.015,0.076,0.045,0.135c0,0.06,0,0.105,0,0.135
		c0,0.3-0.254,0.689-0.764,1.168c-0.27,0.24-0.6,0.6-0.988,1.079c-0.09,0.06-0.224,0.09-0.404,0.09s-0.465-0.135-0.854-0.405
		c-0.12-0.119-0.27-0.24-0.45-0.359l-0.404-0.27c-2.486-1.138-5.184-1.708-8.089-1.708c-2.547,0-4.614,0.656-6.202,1.966
		c-0.749,0.627-1.123,1.296-1.123,2.011c0,0.269,0.06,0.537,0.179,0.805c0.929,2.176,3.4,3.263,7.417,3.263c0.269,0,0.778,0,1.527,0
		c0.659,0,1.184,0,1.574,0c1.318,0.03,2.351,0.15,3.1,0.359c1.559,0.449,2.607,0.809,3.147,1.078
		c2.816,1.469,4.224,3.851,4.224,7.146C61.602,159.003,61.587,159.093,61.558,159.152z"/>
	<path fill="#E4A52B" d="M88.252,163.771c0,0.212,0.015,0.38,0.046,0.501l-0.27,0.274c-0.391,0-0.989,0-1.798,0
		c-0.809,0-1.423,0-1.843,0c-1.498,0-3.737-0.03-6.718-0.09c-2.982-0.06-5.221-0.09-6.719-0.09c-1.887,0-3.806,0.061-5.752,0.18
		c-0.18-0.69-0.27-1.38-0.27-2.071c0-0.6,0.075-1.5,0.224-2.701c0.15-1.201,0.226-2.101,0.226-2.702c0-0.48-0.031-1.185-0.09-2.115
		c-0.061-0.93-0.09-1.636-0.09-2.116c0-0.871,0.037-2.184,0.113-3.939c0.073-1.756,0.111-3.069,0.111-3.939
		c0-1.261-0.075-2.477-0.224-3.647c-0.18-1.409-0.27-1.965-0.27-1.665c0-0.51,0.27-0.766,0.809-0.766
		c0.121,0,0.308,0.015,0.563,0.045c0.253,0.03,0.456,0.045,0.605,0.045c0.3,0,0.54-0.075,0.72-0.225
		c1.678,0.24,3.894,0.36,6.65,0.36c1.05,0,2.623-0.023,4.72-0.068c2.096-0.045,3.67-0.067,4.718-0.067c0.299,0,0.734,0,1.304,0
		c0.598,0.03,1.033,0.045,1.303,0.045c0.209-0.072,0.299-0.108,0.27-0.108c0.09-0.107,0.194-0.162,0.314-0.162
		c0.18,0,0.314,0.077,0.404,0.228l-0.358,2.599c-2.128,0.243-4.899,0.364-8.315,0.364c-0.779,0-1.948-0.015-3.505-0.045
		c-1.558,0-2.726,0-3.505,0c-0.989,0-1.724,0.015-2.203,0.045l-0.674,0.719c0.09,0.449,0.136,0.914,0.136,1.393
		c0,0.39-0.061,1.012-0.18,1.866c-0.121,0.854-0.165,1.521-0.134,2l0.044,0.584l0.494,0.494c0.749,0.18,1.708,0.27,2.877,0.27
		c2.726,0,3.745-0.015,3.056-0.045c1.199,0.03,2.203,0.195,3.011,0.494v2.202c-0.988,0.09-1.963,0.135-2.921,0.135
		c-3.207,0-5.302,0.12-6.292,0.359l-0.224,0.27l0.134,8.044l0.584,0.584c0.689-0.029,1.708-0.045,3.057-0.045
		c1.408,0,3.513,0.054,6.313,0.158c2.802,0.105,4.906,0.157,6.315,0.157c1.377,0,2.412-0.014,3.101-0.045
		c0.18,0.214,0.269,0.487,0.269,0.821c0,0.183-0.021,0.426-0.067,0.73C88.275,163.39,88.252,163.619,88.252,163.771z"/>
	<path fill="#E4A52B" d="M114.139,151.557c-0.509,0.629-1.482,1.124-2.921,1.483c-0.24,0.06-1.347,0.27-3.326,0.629
		c-0.33,0.09-0.824,0.188-1.482,0.292c-0.659,0.105-1.887,0.157-3.686,0.157c-2.517,0-4.794-0.06-6.831-0.179l-0.45,0.494
		c-0.06,1.078-0.098,2.712-0.113,4.899c-0.016,2.187-0.052,3.819-0.111,4.898h-3.236c-0.09-0.329-0.136-0.644-0.136-0.943
		c0-0.299,0.067-0.764,0.203-1.394c0.134-0.629,0.201-1.107,0.201-1.438c0-1.737-0.038-4.336-0.111-7.798
		c-0.076-3.46-0.113-6.044-0.113-7.752c0-2.816,0.029-4.929,0.09-6.337l0.404-0.224c1.408,0.15,2.697,0.224,3.866,0.224
		c0.868,0,2.157-0.037,3.865-0.112c1.707-0.074,2.98-0.112,3.82-0.112c3.534,0,6.365,0.57,8.493,1.708
		c0.24,0.09,0.569,0.285,0.989,0.584c0.03,0.03,0.165,0.24,0.406,0.629c0.988,1.618,1.482,3.432,1.482,5.438
		C115.443,148.891,115.008,150.509,114.139,151.557z M111.218,143.961c-0.659-1.228-2.381-1.842-5.168-1.842
		c-4.105,0-6.681-0.075-7.729-0.225c-0.18,0.15-0.45,0.225-0.81,0.225c-0.119,0-0.314-0.023-0.584-0.068
		c-0.268-0.045-0.479-0.067-0.628-0.067c-0.27,0-0.524,0.09-0.764,0.27c-0.061,0.899-0.09,1.588-0.09,2.067
		c0,0.659,0.038,1.641,0.113,2.943c0.075,1.304,0.111,2.285,0.111,2.944l3.821,0.09c0.448,0,1.318,0.03,2.607,0.09
		c1.078,0.061,1.931,0.09,2.561,0.09c4.823,0,7.235-1.049,7.235-3.146c0-0.419-0.111-0.996-0.337-1.73
		C111.331,144.868,111.218,144.321,111.218,143.961z"/>
	<path fill="#E4A52B" d="M141.732,141.58h-8.403l-0.225,0.36v2.921c0,6.741-0.045,10.711-0.136,11.91c0,0.18-0.059,0.615-0.18,1.303
		c-0.06,0.57-0.088,1.019-0.088,1.349c0,0.509,0.044,1.274,0.134,2.292c0.09,1.019,0.134,1.782,0.134,2.292
		c0,0.689-0.479,1.033-1.437,1.033c-0.18,0-0.465-0.022-0.854-0.067c-0.391-0.045-0.689-0.068-0.9-0.068
		c-0.088,0-0.284,0.045-0.584,0.135c0.18-3.842,0.27-7.625,0.27-11.347c0-3.392-0.059-6.079-0.18-8.06
		c0-0.721-0.075-1.802-0.225-3.243c-0.149-0.57-0.628-0.855-1.438-0.855c-0.18,0-0.419,0-0.718,0c-0.33,0.03-0.569,0.044-0.72,0.044
		c-0.179,0-0.495-0.044-0.943-0.134c-0.45-0.09-1.065-0.135-1.843-0.135c-1.858,0-3.266,0.045-4.226,0.135v-1.753
		c0-1.079,0.375-1.602,1.125-1.573c11.295,0.33,16.554,0.494,15.774,0.494c1.228,0,3.13-0.029,5.708-0.089
		c0.239,1.198,0.36,1.858,0.36,1.977C142.138,140.981,142.002,141.34,141.732,141.58z"/>
	<path fill="#E4A52B" d="M169.957,163.771c0,0.212,0.016,0.38,0.046,0.501l-0.27,0.274c-0.391,0-0.988,0-1.798,0
		c-0.809,0-1.423,0-1.843,0c-1.498,0-3.737-0.03-6.718-0.09c-2.982-0.06-5.222-0.09-6.72-0.09c-1.887,0-3.806,0.061-5.752,0.18
		c-0.18-0.69-0.27-1.38-0.27-2.071c0-0.6,0.075-1.5,0.224-2.701c0.149-1.201,0.226-2.101,0.226-2.702c0-0.48-0.03-1.185-0.09-2.115
		c-0.061-0.93-0.09-1.636-0.09-2.116c0-0.871,0.037-2.184,0.113-3.939c0.073-1.756,0.111-3.069,0.111-3.939
		c0-1.261-0.075-2.477-0.225-3.647c-0.18-1.409-0.27-1.965-0.27-1.665c0-0.51,0.27-0.766,0.808-0.766
		c0.121,0,0.308,0.015,0.563,0.045c0.253,0.03,0.456,0.045,0.605,0.045c0.301,0,0.54-0.075,0.72-0.225
		c1.678,0.24,3.895,0.36,6.651,0.36c1.049,0,2.622-0.023,4.72-0.068c2.096-0.045,3.67-0.067,4.718-0.067c0.299,0,0.734,0,1.304,0
		c0.598,0.03,1.033,0.045,1.303,0.045c0.209-0.072,0.299-0.108,0.27-0.108c0.09-0.107,0.194-0.162,0.314-0.162
		c0.18,0,0.314,0.077,0.404,0.228l-0.359,2.599c-2.128,0.243-4.899,0.364-8.315,0.364c-0.779,0-1.948-0.015-3.505-0.045
		c-1.557,0-2.726,0-3.505,0c-0.988,0-1.724,0.015-2.203,0.045l-0.674,0.719c0.09,0.449,0.136,0.914,0.136,1.393
		c0,0.39-0.061,1.012-0.18,1.866c-0.121,0.854-0.165,1.521-0.134,2l0.044,0.584l0.494,0.494c0.749,0.18,1.708,0.27,2.877,0.27
		c2.726,0,3.745-0.015,3.056-0.045c1.199,0.03,2.203,0.195,3.011,0.494v2.202c-0.989,0.09-1.963,0.135-2.921,0.135
		c-3.207,0-5.302,0.12-6.292,0.359l-0.224,0.27l0.134,8.044l0.584,0.584c0.689-0.029,1.708-0.045,3.057-0.045
		c1.408,0,3.513,0.054,6.314,0.158c2.802,0.105,4.906,0.157,6.315,0.157c1.377,0,2.412-0.014,3.101-0.045
		c0.18,0.214,0.269,0.487,0.269,0.821c0,0.183-0.021,0.426-0.067,0.73C169.979,163.39,169.957,163.619,169.957,163.771z"/>
	<path fill="#E4A52B" d="M200.247,161.04c0,0.449,0.014,1.124,0.044,2.022c0,0.899,0,1.573,0,2.022
		c-0.299,0.15-0.674,0.225-1.123,0.225c-0.539,0-1.214-0.135-2.022-0.405l-0.136-0.449c-0.06-0.119-0.105-0.24-0.134-0.359
		c0-0.299,0.015-0.749,0.046-1.349c0-0.599,0-1.048,0-1.348c0-1.079-0.031-2.688-0.091-4.831c-0.061-2.142-0.09-3.737-0.09-4.787
		c0-1.438,0.045-2.846,0.135-4.225c-0.062-0.239-0.195-0.359-0.404-0.359h-0.181c-0.748,1.409-1.977,3.46-3.685,6.157
		c-0.149,0.179-0.36,0.464-0.629,0.854c-0.09,0.21-0.226,0.525-0.404,0.944c-0.36,0.779-1.108,2.083-2.248,3.91
		c-1.02,1.618-1.737,2.937-2.157,3.955c-0.479-0.569-0.942-1.348-1.393-2.337c-0.36-0.838-0.72-1.677-1.078-2.516
		c-1.799-3.596-3.657-6.727-5.574-9.394c-0.419-0.119-0.809-0.389-1.168-0.809c-0.06,0.3-0.088,0.525-0.088,0.674
		c0,0.269,0.044,0.667,0.134,1.19c0.09,0.525,0.134,0.921,0.134,1.191c0-0.03-0.134,4.539-0.404,13.708
		c-0.449,0.24-0.96,0.359-1.529,0.359c-0.419,0-1.048-0.059-1.887-0.18c-0.27-2.187-0.404-4.748-0.404-7.685
		c0-1.468,0.044-3.692,0.134-6.674c0.09-2.98,0.136-5.221,0.136-6.719c0-2.158-0.046-3.79-0.136-4.899
		c0.36,0,0.883-0.014,1.573-0.045c0.689,0,1.199,0,1.528,0c0.389,0,0.689,0.188,0.898,0.562c0.21,0.375,0.383,0.719,0.517,1.034
		c0.136,0.314,0.412,0.817,0.832,1.505c0.779,1.289,2.007,3.551,3.685,6.786c1.558,2.907,2.831,5.139,3.82,6.696
		c0.539-0.149,1.168-0.869,1.888-2.157c0.36-0.659,1.753-2.966,4.18-6.922c1.737-2.816,3.012-5.213,3.82-7.19
		c0.299-0.329,0.703-0.494,1.214-0.494c0.209,0,0.516,0.038,0.921,0.113c0.404,0.075,0.711,0.112,0.922,0.112h0.358
		c0.18,1.229,0.27,2.772,0.27,4.629c0,1.948-0.038,4.862-0.112,8.742C200.283,156.179,200.247,159.093,200.247,161.04z"/>
	<path fill="#E4A52B" d="M228.92,156.95c0.06,0.3,0.09,0.524,0.09,0.674c0,0.27-0.098,0.673-0.293,1.213
		c-0.195,0.54-0.291,0.959-0.291,1.258c0,0.18,0.014,0.315,0.044,0.405c-1.407,3.056-4.449,4.583-9.123,4.583
		c-1.019,0-2.538-0.082-4.562-0.247c-2.022-0.164-3.543-0.247-4.562-0.247c0.031,0-1.706,0.045-5.212,0.135
		c-0.03-4.285-0.046-8.554-0.046-12.809c-0.06-4.883-0.209-9.152-0.448-12.808c1.797,0.179,4.028,0.269,6.696,0.269
		c0.688,0,1.707-0.014,3.056-0.045c1.377,0,2.396,0,3.056,0c2.367,0,4.585,0.3,6.652,0.899c0.299,0.09,0.785,0.412,1.46,0.966
		c0.674,0.555,1.281,0.892,1.821,1.011c0.448,1.409,0.674,2.682,0.674,3.82c0,1.648-0.435,3.011-1.305,4.089
		c-0.658,0.18-0.988,0.555-0.988,1.124c0,0.27,0.181,0.584,0.54,0.944c0.119,0.12,0.299,0.285,0.539,0.494
		c0.839,0.78,1.348,1.274,1.528,1.483c0.538,0.66,0.809,1.303,0.809,1.933C229.055,156.396,229.01,156.68,228.92,156.95z
		 M222.852,143.377c-2.037-0.809-4.808-1.214-8.313-1.214h-4.539c-0.299,0.09-0.539,0.135-0.719,0.135
		c-0.81,0-1.304,0.121-1.484,0.36v6.202l0.496,0.764c2.875,0.18,5.017,0.27,6.427,0.27h2.651c4.373-0.18,6.561-1.453,6.561-3.82
		C223.931,145.146,223.572,144.247,222.852,143.377z M217.279,153.4c-0.6,0-1.505,0.03-2.72,0.089
		c-1.213,0.061-2.134,0.09-2.763,0.09c-1.168,0-2.173-0.074-3.011-0.224l-0.584,0.359v7.46l0.179,0.359
		c6.472,0.09,9.692,0.135,9.663,0.135l1.438-0.135c4.014-0.389,6.022-1.647,6.022-3.775
		C225.505,154.853,222.762,153.4,217.279,153.4z"/>
	<path fill="#E4A52B" d="M255.57,163.771c0,0.212,0.016,0.38,0.046,0.501l-0.27,0.274c-0.391,0-0.989,0-1.799,0
		c-0.809,0-1.423,0-1.843,0c-1.498,0-3.737-0.03-6.718-0.09c-2.982-0.06-5.222-0.09-6.72-0.09c-1.887,0-3.806,0.061-5.752,0.18
		c-0.18-0.69-0.271-1.38-0.271-2.071c0-0.6,0.075-1.5,0.225-2.701c0.149-1.201,0.226-2.101,0.226-2.702
		c0-0.48-0.03-1.185-0.09-2.115c-0.061-0.93-0.09-1.636-0.09-2.116c0-0.871,0.036-2.184,0.112-3.939
		c0.073-1.756,0.112-3.069,0.112-3.939c0-1.261-0.075-2.477-0.225-3.647c-0.18-1.409-0.271-1.965-0.271-1.665
		c0-0.51,0.271-0.766,0.809-0.766c0.121,0,0.309,0.015,0.563,0.045c0.253,0.03,0.456,0.045,0.605,0.045
		c0.301,0,0.54-0.075,0.72-0.225c1.678,0.24,3.895,0.36,6.651,0.36c1.049,0,2.622-0.023,4.719-0.068s3.671-0.067,4.719-0.067
		c0.299,0,0.733,0,1.304,0c0.599,0.03,1.033,0.045,1.303,0.045c0.209-0.072,0.299-0.108,0.271-0.108
		c0.09-0.107,0.193-0.162,0.314-0.162c0.18,0,0.313,0.077,0.403,0.228l-0.358,2.599c-2.128,0.243-4.899,0.364-8.314,0.364
		c-0.779,0-1.948-0.015-3.506-0.045c-1.558,0-2.726,0-3.505,0c-0.989,0-1.724,0.015-2.203,0.045l-0.674,0.719
		c0.09,0.449,0.136,0.914,0.136,1.393c0,0.39-0.062,1.012-0.181,1.866c-0.12,0.854-0.164,1.521-0.134,2l0.044,0.584l0.494,0.494
		c0.749,0.18,1.709,0.27,2.877,0.27c2.727,0,3.745-0.015,3.056-0.045c1.199,0.03,2.203,0.195,3.012,0.494v2.202
		c-0.989,0.09-1.964,0.135-2.922,0.135c-3.206,0-5.302,0.12-6.292,0.359l-0.225,0.27l0.135,8.044l0.584,0.584
		c0.689-0.029,1.708-0.045,3.057-0.045c1.408,0,3.514,0.054,6.313,0.158c2.803,0.105,4.906,0.157,6.315,0.157
		c1.378,0,2.412-0.014,3.102-0.045c0.18,0.214,0.269,0.487,0.269,0.821c0,0.183-0.021,0.426-0.067,0.73
		C255.594,163.39,255.57,163.619,255.57,163.771z"/>
	<path fill="#E4A52B" d="M283.344,149.49c-0.03,0.15-0.225,0.524-0.584,1.124c-1.409,2.457-3.116,3.685-5.124,3.685
		c-0.12,0.09-0.314,0.255-0.584,0.494c0.419,1.379,1.243,3.072,2.473,5.079c1.496,2.487,2.427,4.135,2.785,4.944v0.269
		c-0.299-0.059-0.538-0.09-0.719-0.09c-0.18,0-0.465,0.015-0.854,0.045c-0.39,0.031-0.689,0.045-0.898,0.045
		c-0.898,0-1.529-0.332-1.889-0.997l-4.898-9.381l-0.628-0.499c-0.661,0.121-1.17,0.18-1.529,0.18c-0.54,0-1.348-0.03-2.427-0.09
		c-1.078-0.06-1.889-0.09-2.427-0.09c-1.168,0-2.128,0.09-2.877,0.27l-0.358,0.584c0.029,0.3,0.044,0.765,0.044,1.394
		c0,0.78-0.061,1.939-0.18,3.482c-0.12,1.544-0.18,2.705-0.18,3.483c0,0.359,0.03,0.898,0.09,1.618l-0.404,0.27
		c-0.299-0.09-0.629-0.135-0.988-0.135c-0.301,0-0.525,0.045-0.675,0.135c-1.078,0-1.618-0.317-1.618-0.95
		c0-0.21,0.03-0.467,0.09-0.769c0.06-0.302,0.136-1.599,0.226-3.891c0.119-2.654,0.179-5.384,0.179-8.188c0-1.085,0-2.745,0-4.977
		c-0.029-2.232-0.044-3.906-0.044-5.022v-3.121c0.689-0.121,1.438-0.182,2.247-0.182c0.568,0,1.444,0.061,2.63,0.18
		c1.182,0.12,2.074,0.179,2.674,0.179c1.018,0,1.933-0.119,2.741-0.359c2.066,0.3,4.148,0.6,6.246,0.899
		c2.456,0.419,4.359,1.213,5.708,2.382c0.629,0.539,1.079,1.034,1.349,1.483c0.42,0.719,0.629,2.038,0.629,3.955
		C283.568,148.126,283.493,148.981,283.344,149.49z M278.67,143.692c-1.678-1.079-5.363-1.678-11.057-1.798
		c-0.239,0-0.748-0.015-1.528-0.045c-0.6-0.03-1.094-0.045-1.482-0.045c-0.689,0-1.14,0.195-1.349,0.584l-0.09,7.685l0.36,0.315
		c1.228,0.359,3.011,0.54,5.348,0.54c0.479,0,1.197-0.016,2.157-0.045c0.959,0,1.678,0,2.157,0h1.438c0.03,0,0.419-0.059,1.168-0.18
		c2.546-0.389,3.984-1.243,4.315-2.562c0.06-0.239,0.09-0.584,0.09-1.034C280.198,145.49,279.688,144.351,278.67,143.692z"/>
</g>
<g>
	<path fill="#E4A52B" d="M55.083,216.459c-0.246-0.146-0.613-0.22-1.102-0.22c-0.246,0-0.624,0.037-1.136,0.11
		c-0.514,0.073-0.917,0.109-1.211,0.109c-0.783,0-1.319-0.293-1.614-0.879v-30.005c-0.244-0.438-0.563-0.658-0.954-0.658
		c-0.343,0-0.636,0.171-0.88,0.512c-0.979,0.931-2.287,2.447-3.925,4.549c-1.639,2.103-2.947,3.62-3.925,4.549
		c-1.173-0.195-2.272-1.027-3.301-2.495c4.108-6.554,8.387-12.03,12.838-16.432c0.342,0.196,0.734,0.294,1.175,0.294
		c0.244,0,0.61-0.048,1.1-0.146c0.488-0.098,0.854-0.147,1.1-0.147c1.222,0,1.909,0.492,2.055,1.474
		c0.098,0.688,0.146,1.963,0.146,3.828c0,2.06-0.11,5.166-0.329,9.312c-0.221,4.149-0.331,7.253-0.331,9.314
		c0,1.914,0.098,3.877,0.294,5.888c0.244,2.505,0.366,3.512,0.366,3.021c0,0.147,0,0.345,0,0.589
		c-0.049,0.294-0.073,0.516-0.073,0.662c0,0.442,0.047,1.143,0.146,2.099c0.098,0.958,0.146,1.681,0.146,2.172
		C55.668,214.89,55.473,215.724,55.083,216.459z"/>
	<path fill="#E4A52B" d="M103.646,210.298c-4.158,4.744-11.274,7.116-21.348,7.116c-1.809,0-4.059-0.488-6.749-1.468
		c-3.864-1.418-6.065-2.201-6.602-2.348c-0.49-0.488-1.321-0.989-2.494-1.504c-1.174-0.514-2.006-0.99-2.494-1.429
		c0.684-1.858,1.564-3.326,2.641-4.402c8.803,3.13,15.379,4.694,19.733,4.694c3.276,0,6.358-0.634,9.244-1.906
		c1.907-0.833,3.228-1.639,3.96-2.423c1.028-1.073,1.541-2.492,1.541-4.254c0-1.271-1-2.763-3-4.474
		c-0.293-0.195-0.734-0.515-1.318-0.955c-1.367-0.879-5.222-1.49-11.566-1.834c-1.708-0.098-2.587-0.146-2.636-0.146
		c-0.195,0-0.879,0.098-2.049,0.293c-3.173,0.54-7.664,1.663-13.469,3.374c-0.488,0-0.732-0.22-0.732-0.658c0-0.146,0-0.354,0-0.624
		c0-0.269,0-0.478,0-0.624c0-0.195,0-0.342,0-0.439c0.194-3.081,0.293-6.505,0.293-10.271v-10.563
		c5.476-0.488,12.078-0.734,19.806-0.734c1.858,0,4.634,0.025,8.327,0.073c3.691,0.049,6.466,0.074,8.326,0.074
		c-0.05,0.44-0.012,1.076,0.11,1.907c0.122,0.833,0.183,1.419,0.183,1.761c0,1.419-0.513,2.127-1.541,2.127
		c-0.293,0-0.685-0.048-1.173-0.146c-5.38,0.292-9.269,0.44-11.665,0.44c-1.466,0-3.619-0.024-6.454-0.074c-2.888,0-5.039,0-6.456,0
		c-2.104,0-3.327,0.466-3.669,1.395v7.849c0.342,0.393,0.807,0.588,1.395,0.588c0.342,0,0.807-0.098,1.393-0.295
		c3.474-1.173,6.7-1.76,9.684-1.76c2.347,0,5.146,0.318,8.4,0.954c3.252,0.635,5.879,1.419,7.885,2.347
		c1.467,0.687,2.813,2.3,4.035,4.842c1.126,2.348,1.688,4.427,1.688,6.235C106.873,205.432,105.796,207.853,103.646,210.298z"/>
	<path fill="#E4A52B" d="M131.405,175.939h-7.276l-0.195,0.311v2.529c0,5.837-0.038,9.276-0.118,10.313
		c0,0.156-0.052,0.531-0.156,1.129c-0.052,0.491-0.078,0.882-0.078,1.166c0,0.442,0.04,1.104,0.118,1.985
		c0.078,0.882,0.116,1.544,0.116,1.983c0,0.598-0.415,0.897-1.245,0.897c-0.156,0-0.403-0.021-0.74-0.06
		c-0.337-0.038-0.597-0.059-0.778-0.059c-0.078,0-0.247,0.038-0.505,0.118c0.156-3.329,0.233-6.603,0.233-9.827
		c0-2.937-0.053-5.263-0.155-6.979c0-0.623-0.066-1.559-0.195-2.807c-0.13-0.494-0.544-0.741-1.245-0.741c-0.156,0-0.365,0-0.623,0
		c-0.287,0.026-0.494,0.039-0.624,0.039c-0.155,0-0.427-0.039-0.816-0.117s-0.921-0.117-1.596-0.117
		c-1.609,0-2.828,0.039-3.658,0.117v-1.518c0-0.935,0.323-1.388,0.973-1.362c9.779,0.286,14.333,0.428,13.659,0.428
		c1.063,0,2.71-0.025,4.942-0.078c0.206,1.038,0.312,1.609,0.312,1.712C131.756,175.421,131.638,175.732,131.405,175.939z"/>
	<path fill="#E4A52B" d="M156.309,194.813v1.089l-2.645,0.156v-9.77c-0.078-0.311-0.247-0.519-0.506-0.622
		c-2.31,0.079-3.983,0.119-5.02,0.119c-4.41,0-7.354,0.038-8.833,0.116l-0.427,0.391c0.05,0.989,0.05,2.305,0,3.944
		c-0.078,2.06-0.118,3.373-0.118,3.944c0,0.678,0.012,1.188,0.04,1.525c-0.313,0.235-0.676,0.352-1.091,0.352
		c-0.311,0-0.908-0.116-1.79-0.352l-0.233-0.311v-3.509l0.233-18.244c0.104,0.026,0.259,0.039,0.467,0.039
		c0.182,0,0.453-0.033,0.818-0.098c0.363-0.064,0.646-0.098,0.855-0.098c0.286,0,0.531,0.053,0.74,0.156l0.078,8.444
		c0.128,0.233,0.355,0.377,0.68,0.428c0.323,0.053,0.628,0.092,0.914,0.116c0.44,0.078,0.804,0.117,1.09,0.117
		c0.674,0,1.698-0.013,3.074-0.039c1.349,0,2.36,0,3.036,0c1.737,0,3.463,0.039,5.176,0.117l0.311-0.312
		c0.078-0.363,0.116-0.934,0.116-1.712c0-0.492-0.038-1.226-0.116-2.198c-0.078-0.973-0.117-1.705-0.117-2.199
		c0-0.934,0.104-1.751,0.311-2.451c0.702-0.208,1.362-0.312,1.986-0.312c0.389,0,0.674,0.026,0.856,0.078
		c0.208,0.285,0.311,0.739,0.311,1.361c0,0.338,0.032,0.837,0.098,1.499c0.064,0.662,0.096,1.161,0.096,1.498
		c0,1.868-0.064,4.664-0.194,8.387C156.375,190.188,156.309,192.971,156.309,194.813z"/>
	<path fill="#E4A52B" d="M183.268,216.604c-0.415-0.028-0.934-0.414-1.556-1.156c-0.119-0.178-0.319-0.4-0.602-0.666
		c-0.282-0.269-0.526-0.399-0.733-0.399c-0.267,0-0.578,0.25-0.934,0.755c-2.641,1.423-5.161,2.134-7.562,2.134
		c-1.364,0-2.551-0.223-3.559-0.667c-1.81-0.028-3.469-0.739-4.98-2.134c-1.365-1.275-2.33-2.831-2.893-4.671
		c-0.119-0.384-0.177-0.756-0.177-1.111c0-1.186,0.874-2.653,2.624-4.404c0.208-0.236,0.519-0.548,0.934-0.934
		c0.327-0.266,0.905-0.562,1.736-0.89c1.066-0.386,1.719-0.651,1.956-0.801c-0.117-0.384-0.488-1.229-1.11-2.535
		c-0.505-0.978-0.756-1.852-0.756-2.623c0-1.305,0.474-2.358,1.423-3.158c0.475-0.445,1.483-1.037,3.025-1.778
		c0.651-0.326,1.304-0.653,1.957-0.979c0.592-0.238,1.333-0.356,2.223-0.356c2.136,0,4.521,0.979,7.162,2.936
		c-0.267,0.594-0.622,1.527-1.067,2.803c-0.327,0-0.653-0.119-0.979-0.355l-0.889-0.578c-1.395-0.713-2.95-1.068-4.669-1.068
		c-0.534,0-1.112,0.089-1.734,0.268c-0.772,0.207-1.246,0.489-1.423,0.845l-0.09,0.089c-0.86,0.86-1.289,1.408-1.289,1.646
		c0,0.149,0.088,0.372,0.267,0.668c0.355,0.592,1.007,1.261,1.957,2.002c1.126,0.888,1.852,1.526,2.178,1.913
		c1.247,1.393,3.069,3.526,5.472,6.403c0.236,0.326,0.534,0.549,0.889,0.668c0.118,0.058,0.296,0.117,0.534,0.177
		c0.236,0.06,0.415,0.119,0.534,0.178c0.858-0.74,1.437-1.261,1.734-1.557c0.651-0.622,1.125-1.229,1.423-1.824
		c0.858,0.269,1.838,0.713,2.935,1.336v0.4l-3.557,4.936c1.896,1.543,3.113,2.862,3.647,3.96c-0.357,0.208-1.018,0.296-1.98,0.266
		C184.372,216.308,183.683,216.398,183.268,216.604z M171.215,204.685c-0.417-0.06-0.712-0.09-0.891-0.09
		c-1.778,0-3.484,0.964-5.115,2.892c-0.682,0.8-1.022,1.571-1.022,2.312c0,0.89,0.206,1.498,0.623,1.824
		c0.148,0.119,0.459,0.297,0.934,0.534c2.312,1.156,4.417,1.733,6.316,1.733c1.066,0,1.867-0.104,2.401-0.312
		c0.178-0.089,0.415-0.207,0.712-0.355c0.651-0.325,1.082-0.578,1.289-0.755c0.446-0.326,0.742-0.697,0.89-1.113
		C176.107,209.755,174.062,207.531,171.215,204.685z"/>
	<path fill="#E4A52B" d="M212.936,216.459c-0.246-0.146-0.613-0.22-1.102-0.22c-0.246,0-0.624,0.037-1.137,0.11
		c-0.514,0.073-0.917,0.109-1.211,0.109c-0.782,0-1.319-0.293-1.614-0.879v-30.005c-0.244-0.438-0.562-0.658-0.953-0.658
		c-0.343,0-0.636,0.171-0.88,0.512c-0.979,0.931-2.287,2.447-3.925,4.549c-1.639,2.103-2.947,3.62-3.925,4.549
		c-1.174-0.195-2.273-1.027-3.302-2.495c4.108-6.554,8.387-12.03,12.838-16.432c0.342,0.196,0.734,0.294,1.175,0.294
		c0.244,0,0.61-0.048,1.1-0.146c0.488-0.098,0.854-0.147,1.101-0.147c1.222,0,1.908,0.492,2.055,1.474
		c0.098,0.688,0.146,1.963,0.146,3.828c0,2.06-0.11,5.166-0.33,9.312c-0.221,4.149-0.331,7.253-0.331,9.314
		c0,1.914,0.098,3.877,0.295,5.888c0.244,2.505,0.366,3.512,0.366,3.021c0,0.147,0,0.345,0,0.589
		c-0.049,0.294-0.073,0.516-0.073,0.662c0,0.442,0.047,1.143,0.146,2.099c0.098,0.958,0.146,1.681,0.146,2.172
		C213.521,214.89,213.326,215.724,212.936,216.459z"/>
	<path fill="#E4A52B" d="M266.779,205.383c0,0.293-0.024,0.49-0.073,0.588c-0.196,0.831-0.782,1.906-1.76,3.228
		c-1.714,2.346-4.182,4.106-7.409,5.281c-2.104,0.784-5.112,1.467-9.023,2.053c-2.642,0.394-4.034,0.589-4.183,0.589
		c-5.966,0-11.395-1.736-16.285-5.209c-0.586-0.393-1.37-1.027-2.348-1.908c-0.293-0.293-0.709-0.903-1.246-1.834
		c-2.299-3.765-3.447-7.873-3.447-12.324c0-5.035,1.49-9.242,4.474-12.616c2.494-2.789,6.31-5.209,11.444-7.263
		c2.835-1.125,5.209-1.687,7.115-1.687c8.265,0,15.039,1.883,20.32,5.648c-0.782,2.054-1.589,3.448-2.421,4.181
		c-4.451-3.374-10.686-5.061-18.706-5.061c-0.88,0-1.884,0.22-3.008,0.661c-2.543,0.979-4.817,2.396-6.822,4.254
		c-2.25,2.055-3.717,4.256-4.4,6.602c-0.197,0.882-0.562,2.203-1.102,3.963c0.244,0.049,0.588,0.073,1.026,0.073
		c1.321,0,2.836-0.317,4.549-0.955c1.468-0.585,2.909-1.173,4.328-1.76c0.098-0.049,1.382-0.293,3.852-0.732
		c2.47-0.44,4.364-0.662,5.686-0.662c1.809,0,4.096,0.247,6.859,0.735c2.761,0.488,4.926,1.075,6.492,1.761
		c4.058,1.711,6.088,5.624,6.088,11.736V205.383z M260.178,200.614c-2.887-2.688-7.092-4.034-12.618-4.034
		c0.098,0-1.296,0.122-4.182,0.366c-4.011,0.343-6.774,0.76-8.289,1.247c-2.983,0.931-5.16,2.594-6.528,4.988
		c3.961,5.528,8.9,8.289,14.817,8.289c1.175,0,2.616-0.171,4.329-0.513c2.005-0.341,3.984-0.685,5.941-1.027
		c2.641-0.586,4.426-1.417,5.354-2.493s1.395-2.666,1.395-4.769C260.397,201.935,260.324,201.251,260.178,200.614z"/>
	<path fill="#E4A52B" d="M291.457,175.939h-7.275l-0.195,0.311v2.529c0,5.837-0.038,9.276-0.118,10.313
		c0,0.156-0.052,0.531-0.155,1.129c-0.052,0.491-0.078,0.882-0.078,1.166c0,0.442,0.04,1.104,0.118,1.985
		c0.077,0.882,0.115,1.544,0.115,1.983c0,0.598-0.414,0.897-1.244,0.897c-0.155,0-0.403-0.021-0.74-0.06s-0.597-0.059-0.777-0.059
		c-0.078,0-0.247,0.038-0.505,0.118c0.155-3.329,0.233-6.603,0.233-9.827c0-2.937-0.054-5.263-0.156-6.979
		c0-0.623-0.065-1.559-0.195-2.807c-0.129-0.494-0.544-0.741-1.244-0.741c-0.156,0-0.365,0-0.623,0
		c-0.286,0.026-0.494,0.039-0.623,0.039c-0.156,0-0.428-0.039-0.816-0.117s-0.922-0.117-1.596-0.117
		c-1.609,0-2.828,0.039-3.658,0.117v-1.518c0-0.935,0.323-1.388,0.974-1.362c9.779,0.286,14.333,0.428,13.658,0.428
		c1.063,0,2.711-0.025,4.942-0.078c0.206,1.038,0.312,1.609,0.312,1.712C291.809,175.421,291.691,175.732,291.457,175.939z"/>
	<path fill="#E4A52B" d="M316.363,194.813v1.089l-2.646,0.156v-9.77c-0.078-0.311-0.247-0.519-0.506-0.622
		c-2.31,0.079-3.983,0.119-5.021,0.119c-4.41,0-7.354,0.038-8.834,0.116l-0.427,0.391c0.05,0.989,0.05,2.305,0,3.944
		c-0.078,2.06-0.117,3.373-0.117,3.944c0,0.678,0.012,1.188,0.039,1.525c-0.312,0.235-0.676,0.352-1.091,0.352
		c-0.311,0-0.907-0.116-1.789-0.352l-0.233-0.311v-3.509l0.233-18.244c0.104,0.026,0.26,0.039,0.467,0.039
		c0.182,0,0.453-0.033,0.817-0.098c0.363-0.064,0.647-0.098,0.856-0.098c0.285,0,0.53,0.053,0.739,0.156l0.078,8.444
		c0.128,0.233,0.355,0.377,0.681,0.428c0.323,0.053,0.628,0.092,0.913,0.116c0.441,0.078,0.804,0.117,1.091,0.117
		c0.674,0,1.698-0.013,3.074-0.039c1.348,0,2.359,0,3.035,0c1.737,0,3.463,0.039,5.176,0.117l0.312-0.312
		c0.077-0.363,0.115-0.934,0.115-1.712c0-0.492-0.038-1.226-0.115-2.198c-0.078-0.973-0.118-1.705-0.118-2.199
		c0-0.934,0.104-1.751,0.312-2.451c0.701-0.208,1.362-0.312,1.986-0.312c0.389,0,0.674,0.026,0.855,0.078
		c0.207,0.285,0.312,0.739,0.312,1.361c0,0.338,0.031,0.837,0.098,1.499c0.063,0.662,0.096,1.161,0.096,1.498
		c0,1.868-0.064,4.664-0.193,8.387C316.429,190.188,316.363,192.971,316.363,194.813z"/>
</g>
</svg>
